<?xml version="1.0" encoding="utf-8"?>
<!-- Generator: Adobe Illustrator 23.1.1, SVG Export Plug-In . SVG Version: 6.00 Build 0)  -->
<svg version="1.1" id="Ebene_1" xmlns="http://www.w3.org/2000/svg" xmlns:xlink="http://www.w3.org/1999/xlink" x="0px" y="0px"
	 viewBox="0 0 16 16" style="enable-background:new 0 0 16 16;" xml:space="preserve">
<style type="text/css">
	.st0{fill:#FFFFFF;}
	.st1{fill:#999999;}
	.st2{opacity:0.8;}
	.st3{fill:#279989;}
	.st4{fill:#FFFFFF;stroke:#333F48;stroke-width:0.3125;stroke-miterlimit:10;}
</style>
<path class="st0" d="M1,1h14v14H1V1z"/>
<path class="st1" d="M1,1v14h14V1H1z M2,2h12v12H2V2z"/>
<g class="st2">
	<rect x="3" y="3" class="st3" width="10" height="10"/>
	<g>
		<path class="st4" d="M9,6.2c0.4,0,0.8-0.1,1.4-0.4c0.1-0.1,0.2,0,0.3,0c0.1,0.1,0.2,0.2,0.2,0.3V9c0,0.1-0.1,0.2-0.2,0.3
			c-0.5,0.3-0.9,0.5-1.4,0.5c-0.2,0-0.4,0-0.6-0.1c-0.1,0-0.3-0.1-0.5-0.2C8.1,9.5,7.9,9.4,7.8,9.4c-0.2,0-0.3-0.1-0.4-0.1
			c-0.5,0-0.9,0.1-1.3,0.3v1.1c0,0.1,0,0.1-0.1,0.2C6,10.9,5.9,11,5.8,11H5.6c-0.1,0-0.1,0-0.2-0.1c-0.1-0.1-0.1-0.1-0.1-0.2V6.2
			C5.3,6.2,5.2,6.1,5.2,6S5.1,5.8,5.1,5.7c0-0.2,0.1-0.3,0.2-0.5C5.4,5.1,5.6,5,5.8,5c0.2,0,0.3,0.1,0.4,0.2s0.2,0.3,0.2,0.4
			c0,0.1,0,0.2,0,0.3c0.3-0.1,0.5-0.1,0.8-0.1c0.2,0,0.4,0,0.6,0.1C7.8,5.9,8,5.9,8.2,6c0.2,0.1,0.3,0.1,0.4,0.1
			C8.8,6.2,8.9,6.2,9,6.2z"/>
	</g>
</g>
</svg>
